{
  "page": 1,
  "total_results": 10000,
  "total_pages": 500,
  "results": [
    {
      "popularity": 274.992,
      "vote_count": 476,
      "video": false,
      "poster_path": "/bOKjzWDxiDkgEQznhzP4kdeAHNI.jpg",
      "id": 605116,
      "adult": false,
      "backdrop_path": "/qVygtf2vU15L2yKS4Ke44U4oMdD.jpg",
      "original_language": "en",
      "original_title": "Project Power",
      "genre_ids": [28, 80, 878],
      "title": "Project Power",
      "vote_average": 6.7,
      "overview": "An ex-soldier, a teen and a cop collide in New Orleans as they hunt for the source behind a dangerous new pill that grants users temporary superpowers.",
      "release_date": "2020-08-14"
    },
    {
      "popularity": 117.131,
      "vote_count": 22,
      "video": false,
      "poster_path": "/5oQJ6HeNGWnEtP9Qyt5IZjuKI7j.jpg",
      "id": 726664,
      "adult": false,
      "backdrop_path": "/s7NC2kntiPB3WltWj9bnNTkoqUp.jpg",
      "original_language": "en",
      "original_title": "Fearless",
      "genre_ids": [16, 35],
      "title": "Fearless",
      "vote_average": 6.8,
      "overview": "A teen gamer is forced to level up to full-time babysitter when his favorite video game drops three superpowered infants from space into his backyard.",
      "release_date": "2020-08-14"
    },
    {
      "popularity": 105.509,
      "vote_count": 92,
      "video": false,
      "poster_path": "/vFIHbiy55smzi50RmF8LQjmpGcx.jpg",
      "id": 703771,
      "adult": false,
      "backdrop_path": "/owraiceOKtSOa3t8sp3wA9K2Ox6.jpg",
      "original_language": "en",
      "original_title": "Deathstroke: Knights & Dragons - The Movie",
      "genre_ids": [28, 16],
      "title": "Deathstroke: Knights & Dragons - The Movie",
      "vote_average": 6.8,
      "overview": "Ten years ago, Slade Wilson-aka the super-assassin called Deathstroke-made a tragic mistake and his wife and son paid a terrible price. Now, a decade later, Wilson's family is threatened once again by the murderous Jackal and the terrorists of H.IV.E. Can Deathstroke atone for the sins of the past-or will his family pay the ultimate price?",
      "release_date": "2020-08-04"
    },
    {
      "popularity": 130.557,
      "vote_count": 31,
      "video": false,
      "poster_path": "/eAUzmhP54bE1vPXaY7FbuZREJlR.jpg",
      "id": 594718,
      "adult": false,
      "backdrop_path": "/mBbA77FyzhU0Tz9tmbKG8heGmh3.jpg",
      "original_language": "ru",
      "original_title": "Спутник",
      "genre_ids": [18, 27, 878],
      "title": "Sputnik",
      "vote_average": 6.2,
      "overview": "At the height of the Cold War, a Soviet spacecraft crash lands after a mission gone awry, leaving the commander as its only survivor. After a renowned Russian psychologist is brought in to evaluate the commander’s mental state, it becomes clear that something dangerous may have come back to Earth with him…",
      "release_date": "2020-07-14"
    },
    {
      "popularity": 80.757,
      "vote_count": 14346,
      "video": false,
      "poster_path": "/udDclJoHjfjb8Ekgsd4FDteOkCU.jpg",
      "id": 475557,
      "adult": false,
      "backdrop_path": "/n6bUvigpRFqSwmPp1m2YADdbRBc.jpg",
      "original_language": "en",
      "original_title": "Joker",
      "genre_ids": [80, 18, 53],
      "title": "Joker",
      "vote_average": 8.2,
      "overview": "During the 1980s, a failed stand-up comedian is driven insane and turns to a life of crime and chaos in Gotham City while becoming an infamous psychopathic crime figure.",
      "release_date": "2019-10-02"
    },
    {
      "popularity": 77.294,
      "vote_count": 19348,
      "video": false,
      "poster_path": "/7WsyChQLEftFiDOVTGkv3hFpyyt.jpg",
      "id": 299536,
      "adult": false,
      "backdrop_path": "/bOGkgRGdhrBYJSLpXaxhXVstddV.jpg",
      "original_language": "en",
      "original_title": "Avengers: Infinity War",
      "genre_ids": [28, 12, 878],
      "title": "Avengers: Infinity War",
      "vote_average": 8.3,
      "overview": "As the Avengers and their allies have continued to protect the world from threats too large for any one hero to handle, a new danger has emerged from the cosmic shadows: Thanos. A despot of intergalactic infamy, his goal is to collect all six Infinity Stones, artifacts of unimaginable power, and use them to inflict his twisted will on all of reality. Everything the Avengers have fought for has led up to this moment - the fate of Earth and existence itself has never been more uncertain.",
      "release_date": "2018-04-25"
    },
    {
      "popularity": 66.508,
      "vote_count": 417,
      "video": false,
      "poster_path": "/b5XfICAvUe8beWExBz97i0Qw4Qh.jpg",
      "id": 612706,
      "adult": false,
      "backdrop_path": "/ishzDCZIv9iWfI70nv5E4ZreYUD.jpg",
      "original_language": "en",
      "original_title": "Work It",
      "genre_ids": [35, 10402],
      "title": "Work It",
      "vote_average": 8,
      "overview": "A brilliant but clumsy high school senior vows to get into her late father's alma mater by transforming herself and a misfit squad into dance champions.",
      "release_date": "2020-08-07"
    },
    {
      "popularity": 83.69,
      "vote_count": 15,
      "video": false,
      "poster_path": "/kMLuNzGnJWvfbpUdVd5pwO7G3Fk.jpg",
      "id": 454433,
      "adult": false,
      "backdrop_path": "/mZgbq4Zpxz7ozWXl4asj6vNdlIi.jpg",
      "original_language": "en",
      "original_title": "Magic Camp",
      "genre_ids": [35, 14, 10751],
      "title": "Magic Camp",
      "vote_average": 6.9,
      "overview": "Andy, at the urging of his former mentor and Magic Camp owner Roy Preston, returns to the camp of his youth hoping to reignite his career. Instead, he finds inspiration in his ragtag bunch of rookie magicians.",
      "release_date": "2020-08-14"
    },
    {
      "popularity": 86.814,
      "vote_count": 91,
      "video": false,
      "poster_path": "/5MSDwUcqnGodFTvtlLiLKK0XKS.jpg",
      "id": 521034,
      "adult": false,
      "backdrop_path": "/8PK4X8U3C79ilzIjNTkTgjmc4js.jpg",
      "original_language": "en",
      "original_title": "The Secret Garden",
      "genre_ids": [18, 14, 10751],
      "title": "The Secret Garden",
      "vote_average": 7.3,
      "overview": "Mary Lennox is born in India to wealthy British parents who never wanted her. When her parents suddenly die, she is sent back to England to live with her uncle. She meets her sickly cousin, and the two children find a wondrous secret garden lost in the grounds of Misselthwaite Manor.",
      "release_date": "2020-07-08"
    },
    {
      "popularity": 69.266,
      "vote_count": 16650,
      "video": false,
      "poster_path": "/rAGiXaUfPzY7CDEyNKUofk3Kw2e.jpg",
      "id": 271110,
      "adult": false,
      "backdrop_path": "/7FWlcZq3r6525LWOcvO9kNWurN1.jpg",
      "original_language": "en",
      "original_title": "Captain America: Civil War",
      "genre_ids": [28, 12, 878],
      "title": "Captain America: Civil War",
      "vote_average": 7.4,
      "overview": "Following the events of Age of Ultron, the collective governments of the world pass an act designed to regulate all superhuman activity. This polarizes opinion amongst the Avengers, causing two factions to side with Iron Man or Captain America, which causes an epic battle between former allies.",
      "release_date": "2016-04-27"
    },
    {
      "popularity": 58.666,
      "vote_count": 88,
      "video": false,
      "poster_path": "/zQFjMmE3K9AX5QrBL1SXIxYQ9jz.jpg",
      "id": 579583,
      "adult": false,
      "backdrop_path": "/5rwcd24GGltKiqdPT4G2dmchLr9.jpg",
      "original_language": "en",
      "original_title": "The King of Staten Island",
      "genre_ids": [35, 18],
      "title": "The King of Staten Island",
      "vote_average": 6.8,
      "overview": "Scott has been a case of arrested development ever since his firefighter father died when he was seven. He’s now reached his mid-20s having achieved little, chasing a dream of becoming a tattoo artist that seems far out of reach. As his ambitious younger sister heads off to college, Scott is still living with his exhausted ER nurse mother and spends his days smoking weed, hanging with the guys — Oscar, Igor and Richie — and secretly hooking up with his childhood friend Kelsey. But when his mother starts dating a loudmouth firefighter named Ray, it sets off a chain of events that will force Scott to grapple with his grief and take his first tentative steps toward moving forward in life.",
      "release_date": "2020-07-22"
    },
    {
      "popularity": 48.06,
      "vote_count": 431,
      "video": false,
      "poster_path": "/yf5IuMW6GHghu39kxA0oFx7Bxmj.jpg",
      "id": 587792,
      "adult": false,
      "backdrop_path": "/d7JUXVvjvVCXWs1mlpyO5ESdWdT.jpg",
      "original_language": "en",
      "original_title": "Palm Springs",
      "genre_ids": [35, 14, 9648, 10749],
      "title": "Palm Springs",
      "vote_average": 7.6,
      "overview": "When carefree Nyles and reluctant maid of honor Sarah have a chance encounter at a Palm Springs wedding, things get complicated when they find themselves unable to escape the venue, themselves, or each other.",
      "release_date": "2020-07-10"
    },
    {
      "popularity": 59.127,
      "vote_count": 157,
      "video": false,
      "poster_path": "/ijJm0RSeKIr67qkHLtSmtigS6ra.jpg",
      "id": 430155,
      "adult": false,
      "backdrop_path": "/8HbqSozBJxv6UldR9lMUECUlbLI.jpg",
      "original_language": "ru",
      "original_title": "Кома",
      "genre_ids": [28, 14, 878],
      "title": "Coma",
      "vote_average": 6,
      "overview": "A young and talented architect comes to his senses after a horrific accident only to find himself in the odd dystopian world. A world that is filled with the memories of all current coma patients. Just like a human memory this world is fragmental, chaotic and unstable. This is COMA: icecaps, rivers and cities can all exist in a space of a single room and laws of physics are no longer laws as they can be bent.",
      "release_date": "2019-11-19"
    },
    {
      "popularity": 69.553,
      "vote_count": 26852,
      "video": false,
      "poster_path": "/9gk7adHYeDvHkCSEqAvQNLV5Uge.jpg",
      "id": 27205,
      "adult": false,
      "backdrop_path": "/s3TBrRGB1iav7gFOCNx3H31MoES.jpg",
      "original_language": "en",
      "original_title": "Inception",
      "genre_ids": [28, 12, 878],
      "title": "Inception",
      "vote_average": 8.3,
      "overview": "Cobb, a skilled thief who commits corporate espionage by infiltrating the subconscious of his targets is offered a chance to regain his old life as payment for a task considered to be impossible: \"inception\", the implantation of another person's idea into a target's subconscious.",
      "release_date": "2010-07-15"
    },
    {
      "popularity": 67.246,
      "vote_count": 3,
      "video": false,
      "poster_path": "/q85VR4nlUUu9tERLUvPFyq2WB8c.jpg",
      "id": 569715,
      "adult": false,
      "backdrop_path": "/Yb4wrPE2XXfCtZeuj4eqRZzNZz.jpg",
      "original_language": "ko",
      "original_title": "맛있는 세자매",
      "genre_ids": [10749],
      "title": "Delicious Three Sisters",
      "vote_average": 4,
      "overview": "The gentle gesture of the three sisters surrounding the male housekeeper begins. The three sisters are not the food of the housemaid but the housekeeper's body.",
      "release_date": "2018-10-04"
    },
    {
      "popularity": 58.848,
      "vote_count": 12,
      "video": false,
      "poster_path": "/v0guO0krvyz8IfKGxEje04LVM9d.jpg",
      "id": 517412,
      "adult": false,
      "backdrop_path": "/4tphk3VbqoRtCVuOzlEQxUrpR6c.jpg",
      "original_language": "en",
      "original_title": "Tesla",
      "genre_ids": [18, 36],
      "title": "Tesla",
      "vote_average": 5.8,
      "overview": "The story of the Promethean struggles of Nikola Tesla, as he attempts to transcend entrenched technology—including his own previous work—by pioneering a system of wireless energy that would change the world.",
      "release_date": "2020-08-14"
    },
    {
      "popularity": 44.876,
      "vote_count": 6237,
      "video": false,
      "poster_path": "/oZRVDpNtmHk8M1VYy1aeOWUXgbC.jpg",
      "id": 87101,
      "adult": false,
      "backdrop_path": "/g4a5YLWwi6OCp8TcvxsUNrXMbN5.jpg",
      "original_language": "en",
      "original_title": "Terminator Genisys",
      "genre_ids": [28, 12, 878, 53],
      "title": "Terminator Genisys",
      "vote_average": 5.9,
      "overview": "The year is 2029. John Connor, leader of the resistance continues the war against the machines. At the Los Angeles offensive, John's fears of the unknown future begin to emerge when TECOM spies reveal a new plot by SkyNet that will attack him from both fronts; past and future, and will ultimately change warfare forever.",
      "release_date": "2015-06-23"
    },
    {
      "popularity": 53.396,
      "vote_count": 5452,
      "video": false,
      "poster_path": "/h4VB6m0RwcicVEZvzftYZyKXs6K.jpg",
      "id": 495764,
      "adult": false,
      "backdrop_path": "/9xNOiv6DZZjH7ABoUUDP0ZynouU.jpg",
      "original_language": "en",
      "original_title": "Birds of Prey (and the Fantabulous Emancipation of One Harley Quinn)",
      "genre_ids": [28, 35, 80],
      "title": "Birds of Prey (and the Fantabulous Emancipation of One Harley Quinn)",
      "vote_average": 7.2,
      "overview": "Harley Quinn joins forces with a singer, an assassin and a police detective to help a young girl who had a hit placed on her after she stole a rare diamond from a crime lord.",
      "release_date": "2020-02-05"
    },
    {
      "popularity": 57.677,
      "vote_count": 3095,
      "video": false,
      "poster_path": "/mb7wQv0adK3kjOUr9n93mANHhPJ.jpg",
      "id": 583083,
      "adult": false,
      "backdrop_path": "/wO5QSWZPBT71gMLvrRex0bVc0V9.jpg",
      "original_language": "en",
      "original_title": "The Kissing Booth 2",
      "genre_ids": [35, 10749],
      "title": "The Kissing Booth 2",
      "vote_average": 8.1,
      "overview": "With college decisions looming, Elle juggles her long-distance romance with Noah, changing relationship with bestie Lee and feelings for a new classmate.",
      "release_date": "2020-07-24"
    },
    {
      "popularity": 83.268,
      "vote_count": 441,
      "video": false,
      "poster_path": "/jHo2M1OiH9Re33jYtUQdfzPeUkx.jpg",
      "id": 385103,
      "adult": false,
      "backdrop_path": "/fKtYXUhX5fxMxzQfyUcQW9Shik6.jpg",
      "original_language": "en",
      "original_title": "Scoob!",
      "genre_ids": [12, 16, 35, 10751],
      "title": "Scoob!",
      "vote_average": 7.5,
      "overview": "In Scooby-Doo’s greatest adventure yet, see the never-before told story of how lifelong friends Scooby and Shaggy first met and how they joined forces with young detectives Fred, Velma, and Daphne to form the famous Mystery Inc. Now, with hundreds of cases solved, Scooby and the gang face their biggest, toughest mystery ever: an evil plot to unleash the ghost dog Cerberus upon the world. As they race to stop this global “dogpocalypse,” the gang discovers that Scooby has a secret legacy and an epic destiny greater than anyone ever imagined.",
      "release_date": "2020-07-08"
    }
  ]
}
